id,name,price,
1,Pils,0.00,
2,Lager,0.00,
3,Keisari Lager,82.50,
4,Keisari APA,94.96,
5,EMPTY,0.00,
6,Keisari Luomu Pils,93.83,
7,Keisari Lager,82.50,
8,Fat Lizard Ankle Slapper,160.00,
9,Keisari Luomu Pils,93.83,
10,Keisari Sauvin Sour,109.50,
11,Keisari APA,94.96,
12,Keisari Lager,82.50,
13,Keisari APA,94.96,
14,ALL OUT OF BEER,0.00,
