id,name,available_from,available_to,TapId,ABV
16,Keisari Luomu Pils,2021-07-28 19:31:02,2021-07-29 17:32:26,2,4.5
17,Keisari APA,2021-07-29 17:32:26,2021-07-29 23:11:17,2,4.2
18,Keisari Lager,2021-07-29 23:11:17,2021-07-30 17:12:21,2,4.5
19,Keisari IPA,2021-07-30 13:48:07,2021-07-31 00:39:14,1,5.1
20,Salama Beauty Tracks NEIPA,2021-07-30 17:12:21,2021-07-30 22:52:04,2,6.5
21,Keisari Luomu Pils,2021-07-30 22:52:04,2021-07-31 16:33:50,2,4.5
22,Keisari Luomu Pils,2021-07-31 00:39:14,2021-07-31 21:34:59,1,4.5
23,Olarin Deep End California IPA,2021-07-31 16:33:50,2021-08-01 21:34:59,2,7.1
24,Keisari APA,2021-07-31 21:34:59,2021-08-01 21:35:59,1,4.2
