id,user_id,tap_id,keg_id,poured_at,amount
2194,29,2,16,2021-07-28 19:56:56,0.32
2195,27,2,16,2021-07-28 19:57:54,0.35
2196,28,2,16,2021-07-28 20:01:03,0.4
2197,29,2,16,2021-07-28 20:13:39,0.4
2198,27,2,16,2021-07-28 20:14:44,0.13
2199,28,2,16,2021-07-28 20:19:59,0.12
2200,28,2,16,2021-07-28 20:20:50,0.29
2201,27,2,16,2021-07-28 20:22:38,0.27
2202,29,2,16,2021-07-28 20:23:52,0.06
2203,27,2,16,2021-07-28 20:27:43,0.04
2204,27,2,16,2021-07-28 20:28:41,0.08
2205,28,2,16,2021-07-28 20:30:04,0.14
2206,27,2,16,2021-07-28 20:38:04,0.23
2207,29,2,16,2021-07-28 20:39:46,0.16
2208,28,2,16,2021-07-28 20:44:41,0.22
2209,27,2,16,2021-07-28 20:48:14,0.32
2210,29,2,16,2021-07-28 20:48:51,0.29
2211,28,2,16,2021-07-28 21:06:27,0.38
2212,27,2,16,2021-07-28 21:27:14,0.34
2213,29,2,16,2021-07-28 21:44:57,0.37
2214,28,2,16,2021-07-28 21:45:41,0.4
2215,27,2,16,2021-07-28 21:55:21,0.35
2216,28,2,16,2021-07-28 22:15:38,0.44
2217,27,2,16,2021-07-28 22:18:16,0.3
2218,31,2,16,2021-07-28 22:19:47,0.39
2219,1,2,16,2021-07-28 22:20:45,0.32
2220,27,2,16,2021-07-28 22:36:17,0.19
2221,29,2,16,2021-07-28 22:39:18,0.43
2222,31,2,16,2021-07-28 22:40:06,0.36
2223,28,2,16,2021-07-28 22:49:40,0.25
2224,30,2,16,2021-07-28 23:00:33,0.1
2225,28,2,16,2021-07-28 23:02:25,0.14
2226,28,2,16,2021-07-28 23:04:30,0.04
2227,31,2,16,2021-07-28 23:17:12,0.24
2228,28,2,16,2021-07-28 23:18:49,0.14
2229,30,2,16,2021-07-28 23:21:20,0.09
2230,27,2,16,2021-07-28 23:51:05,0.21
2231,31,2,16,2021-07-28 23:55:54,0.23
2232,28,2,16,2021-07-29 00:09:36,0.09
2233,28,2,16,2021-07-29 00:11:22,0.08
2234,31,2,16,2021-07-29 00:32:39,0.2
2235,31,2,16,2021-07-29 01:20:14,0.26
2236,31,2,16,2021-07-29 12:00:00,0.3
2237,28,2,16,2021-07-29 12:00:00,0.4
2238,30,2,16,2021-07-29 12:00:00,0.3
2241,27,2,16,2021-07-29 12:09:57,0.35
2242,31,2,16,2021-07-29 12:17:03,0.38
2243,27,2,16,2021-07-29 12:22:31,0.25
2244,29,2,16,2021-07-29 12:29:44,0.39
2245,28,2,16,2021-07-29 12:31:54,0.49
2246,31,2,16,2021-07-29 12:35:16,0.34
2247,27,2,16,2021-07-29 12:36:41,0.33
2248,30,2,16,2021-07-29 12:38:54,0.23
2249,27,2,16,2021-07-29 12:55:21,0.2
2250,30,2,16,2021-07-29 12:59:37,0.2
2251,29,2,16,2021-07-29 13:00:26,0.29
2252,27,2,16,2021-07-29 13:07:06,0.34
2253,28,2,16,2021-07-29 13:08:28,0.44
2254,31,2,16,2021-07-29 13:11:51,0.34
2255,29,2,16,2021-07-29 13:46:45,0.44
2256,31,2,16,2021-07-29 13:57:29,0.36
2257,28,2,16,2021-07-29 14:02:45,0.24
2258,27,2,16,2021-07-29 14:04:27,0.31
2259,32,2,16,2021-07-29 14:13:02,0.39
2260,30,2,16,2021-07-29 14:17:33,0.25
2261,31,2,16,2021-07-29 14:26:01,0.36
2262,29,2,16,2021-07-29 14:42:52,0.47
2263,28,2,16,2021-07-29 14:43:24,0.2
2264,27,2,16,2021-07-29 15:00:06,0.23
2265,33,2,16,2021-07-29 15:04:29,0.41
2266,28,2,16,2021-07-29 15:18:20,0.24
2267,32,2,16,2021-07-29 15:19:36,0.43
2268,31,2,16,2021-07-29 15:20:57,0.42
2269,27,2,16,2021-07-29 15:24:41,0.28
2270,29,2,16,2021-07-29 15:25:11,0.25
2271,28,2,16,2021-07-29 15:26:12,0.19
2272,33,2,16,2021-07-29 15:35:42,0.39
2273,31,2,16,2021-07-29 15:58:26,0.37
2274,30,2,16,2021-07-29 16:04:43,0.28
2275,29,2,16,2021-07-29 16:24:20,0.44
2276,31,2,16,2021-07-29 16:30:51,0.37
2277,33,2,16,2021-07-29 16:33:16,0.33
2278,27,2,16,2021-07-29 16:34:44,0.39
2279,34,2,16,2021-07-29 16:39:21,0.36
2280,30,2,16,2021-07-29 16:39:51,0.3
2281,32,2,16,2021-07-29 16:43:20,0.4
2282,34,2,16,2021-07-29 16:50:15,0.43
2283,28,2,16,2021-07-29 16:50:53,0.35
2284,27,2,16,2021-07-29 16:56:13,0.38
2285,29,2,16,2021-07-29 16:59:04,0.33
2286,33,2,16,2021-07-29 17:03:19,0.39
2287,30,2,16,2021-07-29 17:21:10,0.23
2288,34,2,16,2021-07-29 17:21:47,0.33
2289,1,2,16,2021-07-29 17:25:32,0.02
2290,28,2,16,2021-07-29 17:28:07,0.33
2291,30,2,16,2021-07-29 17:28:09,0.1
2292,1,2,17,2021-07-29 17:33:08,0.84
2293,1,2,17,2021-07-29 17:33:31,0.12
2294,31,2,17,2021-07-29 17:36:10,0.27
2295,29,2,17,2021-07-29 17:45:24,0.45
2296,27,2,17,2021-07-29 17:46:04,0.42
2297,28,2,17,2021-07-29 17:47:42,0.34
2298,33,2,17,2021-07-29 18:00:45,0.38
2299,34,2,17,2021-07-29 18:04:45,0.45
2300,32,2,17,2021-07-29 18:05:32,0.35
2301,31,2,17,2021-07-29 18:08:25,0.39
2302,29,2,17,2021-07-29 18:46:30,0.28
2303,34,2,17,2021-07-29 18:47:44,0.43
2304,28,2,17,2021-07-29 18:48:34,0.2
2305,35,2,17,2021-07-29 18:50:56,0.44
2306,30,2,17,2021-07-29 18:51:39,0.27
2307,33,2,17,2021-07-29 19:02:30,0.38
2308,31,2,17,2021-07-29 19:04:48,0.38
2309,29,2,17,2021-07-29 19:10:19,0.46
2310,27,2,17,2021-07-29 19:16:05,0.33
2311,32,2,17,2021-07-29 19:16:51,0.37
2312,31,2,17,2021-07-29 19:17:28,0.31
2313,35,2,17,2021-07-29 19:18:12,0.43
2314,30,2,17,2021-07-29 19:21:10,0.31
2315,29,2,17,2021-07-29 19:27:57,0.39
2316,27,2,17,2021-07-29 19:32:25,0.29
2317,31,2,17,2021-07-29 19:34:07,0.34
2318,28,2,17,2021-07-29 19:40:54,0.45
2319,35,2,17,2021-07-29 19:52:01,0.37
2320,36,2,17,2021-07-29 19:53:28,0.44
2321,37,2,17,2021-07-29 19:54:50,0.36
2322,34,2,17,2021-07-29 19:55:26,0.36
2323,31,2,17,2021-07-29 20:05:40,0.22
2324,27,2,17,2021-07-29 20:09:35,0.4
2325,36,2,17,2021-07-29 20:10:23,0.31
2326,32,2,17,2021-07-29 20:10:52,0.36
2327,33,2,17,2021-07-29 20:12:42,0.39
2328,37,2,17,2021-07-29 20:21:17,0.39
2329,29,2,17,2021-07-29 20:25:11,0.47
2330,36,2,17,2021-07-29 20:26:26,0.37
2331,27,2,17,2021-07-29 20:27:25,0.27
2332,35,2,17,2021-07-29 20:29:52,0.46
2333,30,2,17,2021-07-29 20:30:33,0.41
2334,34,2,17,2021-07-29 20:30:59,0.3
2335,27,2,17,2021-07-29 20:44:54,0.35
2336,31,2,17,2021-07-29 20:48:37,0.33
2337,38,2,17,2021-07-29 20:50:48,0.33
2338,36,2,17,2021-07-29 20:51:27,0.36
2339,30,2,17,2021-07-29 20:53:35,0.27
2340,39,2,17,2021-07-29 20:56:23,0.46
2341,35,2,17,2021-07-29 21:00:46,0.36
2342,28,2,17,2021-07-29 21:01:25,0.31
2343,33,2,17,2021-07-29 21:02:12,0.42
2344,36,2,17,2021-07-29 21:05:49,0.38
2345,37,2,17,2021-07-29 21:08:26,0.41
2346,29,2,17,2021-07-29 21:09:10,0.44
2347,27,2,17,2021-07-29 21:16:16,0.15
2348,30,2,17,2021-07-29 21:18:08,0.33
2349,31,2,17,2021-07-29 21:22:04,0.32
2350,36,2,17,2021-07-29 21:22:39,0.41
2351,39,2,17,2021-07-29 21:29:24,0.36
2352,32,2,17,2021-07-29 21:30:14,0.38
2353,34,2,17,2021-07-29 21:30:52,0.43
2354,38,2,17,2021-07-29 21:32:09,0.37
2355,27,2,17,2021-07-29 21:37:14,0.35
2356,40,2,17,2021-07-29 21:38:09,0.31
2357,28,2,17,2021-07-29 21:41:11,0.47
2358,36,2,17,2021-07-29 21:41:45,0.34
2359,37,2,17,2021-07-29 21:42:37,0.41
2360,29,2,17,2021-07-29 21:43:16,0.42
2361,31,2,17,2021-07-29 21:43:48,0.32
2362,33,2,17,2021-07-29 21:49:40,0.4
2363,35,2,17,2021-07-29 21:53:29,0.36
2364,39,2,17,2021-07-29 22:00:29,0.43
2365,36,2,17,2021-07-29 22:07:33,0.44
2366,27,2,17,2021-07-29 22:12:15,0.42
2367,30,2,17,2021-07-29 22:29:02,0.34
2368,29,2,17,2021-07-29 22:32:07,0.48
2369,39,2,17,2021-07-29 22:33:18,0.42
2370,40,2,17,2021-07-29 22:33:53,0.11
2371,34,2,17,2021-07-29 22:35:04,0.42
2372,38,2,17,2021-07-29 22:35:31,0.36
2373,28,2,17,2021-07-29 22:37:25,0.41
2374,37,2,17,2021-07-29 22:44:33,0.31
2375,1,2,17,2021-07-29 23:10:07,0.04
2376,1,2,18,2021-07-29 23:11:56,0.18
2377,1,2,18,2021-07-29 23:12:53,0.44
2378,39,2,18,2021-07-29 23:13:48,0.2
2379,36,2,18,2021-07-29 23:15:51,0.3
2380,38,2,18,2021-07-29 23:16:55,0.41
2381,31,2,18,2021-07-29 23:17:47,0.31
2382,28,2,18,2021-07-29 23:18:30,0.31
2383,34,2,18,2021-07-29 23:20:24,0.39
2384,29,2,18,2021-07-29 23:34:13,0.38
2385,39,2,18,2021-07-29 23:35:06,0.23
2386,28,2,18,2021-07-29 23:37:20,0.17
2387,41,2,18,2021-07-29 23:38:55,0.44
2388,27,2,18,2021-07-29 23:39:35,0.25
2389,33,2,18,2021-07-29 23:40:55,0.22
2390,32,2,18,2021-07-29 23:41:59,0.35
2391,31,2,18,2021-07-29 23:49:00,0.27
2392,41,2,18,2021-07-29 23:54:31,0.43
2393,36,2,18,2021-07-29 23:58:31,0.29
2394,27,2,18,2021-07-30 00:02:05,0.21
2395,35,2,18,2021-07-30 00:02:52,0.3
2396,1,2,18,2021-07-30 00:05:27,0.03
2397,28,2,18,2021-07-30 00:07:29,0.45
2398,39,2,18,2021-07-30 00:08:14,0.39
2399,27,2,18,2021-07-30 00:22:16,0.26
2400,31,2,18,2021-07-30 00:44:19,0.24
2401,31,2,18,2021-07-30 00:47:44,0.29
2402,39,2,18,2021-07-30 00:49:45,0.31
2403,27,2,18,2021-07-30 00:50:21,0.19
2404,36,2,18,2021-07-30 00:55:09,0.31
2405,27,2,18,2021-07-30 01:08:01,0.28
2406,41,2,18,2021-07-30 01:13:20,0.42
2407,36,2,18,2021-07-30 01:15:35,0.33
2408,41,2,18,2021-07-30 01:22:17,0.12
2409,39,2,18,2021-07-30 01:23:27,0.27
2410,32,2,18,2021-07-30 01:25:42,0.37
2411,38,2,18,2021-07-30 01:33:02,0.15
2412,31,2,18,2021-07-30 01:36:50,0.21
2413,27,2,18,2021-07-30 01:51:56,0.27
2414,36,2,18,2021-07-30 02:02:43,0.35
2415,39,2,18,2021-07-30 02:13:26,0.25
2416,31,2,18,2021-07-30 02:22:14,0.29
2417,28,2,18,2021-07-30 12:03:53,0.47
2418,36,2,18,2021-07-30 12:04:30,0.42
2419,35,2,18,2021-07-30 12:06:01,0.18
2420,39,2,18,2021-07-30 12:07:46,0.43
2421,33,2,18,2021-07-30 12:11:30,0.37
2422,32,2,18,2021-07-30 12:33:49,0.43
2423,28,2,18,2021-07-30 12:35:36,0.43
2424,41,2,18,2021-07-30 12:41:19,0.27
2425,31,2,18,2021-07-30 12:42:04,0.27
2426,36,2,18,2021-07-30 12:55:34,0.45
2427,41,2,18,2021-07-30 12:56:30,0.64
2428,39,2,18,2021-07-30 12:57:44,0.43
2429,28,2,18,2021-07-30 12:58:48,0.32
2430,33,2,18,2021-07-30 12:59:48,0.43
2431,29,2,18,2021-07-30 13:01:26,0.4
2432,37,2,18,2021-07-30 13:02:03,0.26
2433,31,2,18,2021-07-30 13:02:53,0.2
2434,39,2,18,2021-07-30 12:18:29,0.47
2435,28,2,18,2021-07-30 12:19:19,0.39
2436,41,2,18,2021-07-30 12:20:09,0.54
2437,36,2,18,2021-07-30 12:30:10,0.36
2438,29,2,18,2021-07-30 12:37:21,0.39
2439,37,2,18,2021-07-30 12:37:54,0.28
2440,31,2,18,2021-07-30 12:43:39,0.41
2441,35,2,18,2021-07-30 13:00:00,0.44
2442,28,2,18,2021-07-30 13:02:08,0.4
2443,32,2,18,2021-07-30 13:04:12,0.44
2444,43,2,18,2021-07-30 13:09:15,0.53
2445,44,2,18,2021-07-30 13:10:22,0.39
2446,36,2,18,2021-07-30 13:13:21,0.43
2447,31,2,18,2021-07-30 13:17:52,0.32
2448,43,2,18,2021-07-30 13:31:32,0.57
2449,39,2,18,2021-07-30 13:37:29,0.45
2450,27,2,18,2021-07-30 13:38:03,0.35
2451,1,1,19,2021-07-30 13:48:57,0.02
2452,1,1,19,2021-07-30 13:51:22,0.87
2453,36,2,18,2021-07-30 13:51:42,0.12
2454,1,1,19,2021-07-30 13:52:06,0.39
2455,1,1,19,2021-07-30 13:54:55,0.21
2456,27,1,19,2021-07-30 13:56:25,0.27
2457,28,1,19,2021-07-30 13:58:36,0.37
2458,36,1,19,2021-07-30 14:00:59,0.34
2459,41,1,19,2021-07-30 14:02:05,0.57
2460,44,1,19,2021-07-30 14:03:51,0.37
2461,33,1,19,2021-07-30 14:08:01,0.4
2462,29,1,19,2021-07-30 14:09:02,0.46
2463,31,1,19,2021-07-30 14:09:56,0.37
2464,27,1,19,2021-07-30 14:14:03,0.3
2465,28,1,19,2021-07-30 14:14:44,0.18
2466,45,1,19,2021-07-30 14:24:12,0.44
2467,32,1,19,2021-07-30 14:24:47,0.35
2468,39,1,19,2021-07-30 14:25:36,0.33
2469,43,2,18,2021-07-30 14:29:08,0.5
2470,46,1,19,2021-07-30 14:33:33,0.25
2471,47,1,19,2021-07-30 14:34:50,0.34
2472,27,1,19,2021-07-30 14:35:47,0.32
2473,31,1,19,2021-07-30 14:37:39,0.36
2474,36,1,19,2021-07-30 14:43:22,0.35
2475,37,1,19,2021-07-30 14:43:56,0.29
2476,46,1,19,2021-07-30 14:45:27,0.23
2477,43,2,18,2021-07-30 14:58:54,0.46
2478,34,1,19,2021-07-30 15:02:30,0.31
2479,39,1,19,2021-07-30 15:03:53,0.32
2480,27,1,19,2021-07-30 16:19:57,0.28
2481,45,2,18,2021-07-30 16:21:16,0.53
2482,41,1,19,2021-07-30 16:21:59,0.51
2483,34,2,18,2021-07-30 16:22:40,0.41
2484,32,1,19,2021-07-30 16:23:19,0.27
2485,47,2,18,2021-07-30 16:24:54,0.56
2486,44,2,18,2021-07-30 16:26:04,0.4
2487,33,1,19,2021-07-30 16:26:43,0.34
2488,31,1,19,2021-07-30 16:27:13,0.29
2489,29,2,18,2021-07-30 16:32:12,0.39
2490,36,1,19,2021-07-30 16:33:02,0.18
2491,39,2,18,2021-07-30 16:38:29,0.3
2492,27,1,19,2021-07-30 16:40:50,0.26
2493,48,1,19,2021-07-30 16:42:25,0.53
2494,49,1,19,2021-07-30 16:43:23,0.47
2495,28,2,18,2021-07-30 16:45:03,0.42
2496,30,2,18,2021-07-30 16:56:22,0.38
2497,31,2,18,2021-07-30 16:57:15,0.3
2498,43,2,18,2021-07-30 17:03:01,0.5
2499,46,1,19,2021-07-30 17:08:17,0.1
2500,34,1,19,2021-07-30 17:08:44,0.36
2501,49,1,19,2021-07-30 17:10:16,0.35
2502,1,2,20,2021-07-30 17:12:21,0.12
2503,1,2,20,2021-07-30 17:13:21,0.39
2504,1,2,20,2021-07-30 17:13:51,0.23
2505,1,2,20,2021-07-30 17:15:06,0.2
2506,1,2,20,2021-07-30 17:16:35,0.1
2507,46,1,19,2021-07-30 17:16:56,0.16
2508,37,1,19,2021-07-30 17:17:22,0.26
2509,32,1,19,2021-07-30 17:18:03,0.29
2510,45,1,19,2021-07-30 17:18:38,0.33
2511,41,1,19,2021-07-30 17:19:08,0.33
2512,31,1,19,2021-07-30 17:19:35,0.33
2513,39,1,19,2021-07-30 17:21:02,0.13
2514,1,2,20,2021-07-30 17:21:56,0.23
2515,36,1,19,2021-07-30 17:23:29,0.27
2516,41,2,20,2021-07-30 17:27:52,0.2
2517,27,2,20,2021-07-30 17:28:26,0.21
2518,29,2,20,2021-07-30 17:29:18,0.34
2519,46,2,20,2021-07-30 17:30:52,0.27
2520,33,2,20,2021-07-30 17:31:38,0.36
2521,39,2,20,2021-07-30 17:33:51,0.33
2522,43,2,20,2021-07-30 17:34:33,0.45
2523,48,2,20,2021-07-30 17:35:19,0.44
2524,44,2,20,2021-07-30 17:36:05,0.4
2525,35,2,20,2021-07-30 17:37:02,0.4
2526,37,2,20,2021-07-30 17:37:57,0.36
2527,49,2,20,2021-07-30 17:40:35,0.52
2528,34,2,20,2021-07-30 17:41:23,0.45
2529,28,2,20,2021-07-30 17:42:00,0.44
2530,27,2,20,2021-07-30 17:43:36,0.28
2531,29,2,20,2021-07-30 17:44:26,0.44
2532,41,2,20,2021-07-30 17:46:19,0.4
2533,46,2,20,2021-07-30 17:52:01,0.33
2534,30,2,20,2021-07-30 18:02:28,0.35
2535,31,2,20,2021-07-30 18:05:00,0.38
2536,39,2,20,2021-07-30 18:05:59,0.36
2537,36,2,20,2021-07-30 18:10:45,0.29
2538,47,2,20,2021-07-30 18:14:02,0.47
2539,32,2,20,2021-07-30 18:14:47,0.35
2540,45,2,20,2021-07-30 18:15:27,0.44
2541,27,2,20,2021-07-30 18:15:56,0.25
2542,33,1,19,2021-07-30 18:22:59,0.21
2543,46,2,20,2021-07-30 18:25:12,0.17
2544,29,2,20,2021-07-30 18:25:53,0.41
2545,37,2,20,2021-07-30 18:29:06,0.34
2546,36,1,19,2021-07-30 18:38:04,0.33
2547,31,2,20,2021-07-30 18:38:43,0.29
2548,49,2,20,2021-07-30 18:40:17,0.52
2549,28,1,19,2021-07-30 18:40:54,0.4
2550,44,2,20,2021-07-30 18:42:02,0.28
2551,27,2,20,2021-07-30 18:42:38,0.23
2552,27,1,19,2021-07-30 18:55:48,0.28
2553,30,2,20,2021-07-30 18:57:28,0.35
2554,41,2,20,2021-07-30 18:58:30,0.41
2555,31,2,20,2021-07-30 18:59:09,0.4
2556,33,2,20,2021-07-30 18:59:52,0.37
2557,44,1,19,2021-07-30 19:00:24,0.28
2558,43,2,20,2021-07-30 19:03:16,0.53
2559,45,2,20,2021-07-30 19:04:24,0.45
2560,39,1,19,2021-07-30 19:04:55,0.28
2561,46,2,20,2021-07-30 19:11:14,0.28
2562,34,2,20,2021-07-30 19:15:16,0.38
2563,29,2,20,2021-07-30 19:18:07,0.5
2564,27,1,19,2021-07-30 19:18:35,0.3
2565,32,2,20,2021-07-30 19:19:47,0.35
2566,36,2,20,2021-07-30 19:20:22,0.33
2567,28,2,20,2021-07-30 19:21:08,0.44
2568,37,2,20,2021-07-30 19:21:45,0.38
2569,39,2,20,2021-07-30 19:24:04,0.39
2570,27,1,19,2021-07-30 19:40:26,0.25
2571,45,2,20,2021-07-30 19:41:07,0.45
2572,32,2,20,2021-07-30 19:41:38,0.35
2573,29,2,20,2021-07-30 19:42:17,0.31
2574,39,1,19,2021-07-30 19:43:19,0.19
2575,37,2,20,2021-07-30 19:43:45,0.13
2576,48,2,20,2021-07-30 19:45:34,0.37
2577,33,1,19,2021-07-30 19:46:56,0.23
2578,46,2,20,2021-07-30 19:48:59,0.4
2579,49,2,20,2021-07-30 19:51:52,0.4
2580,31,2,20,2021-07-30 19:52:28,0.35
2581,27,1,19,2021-07-30 19:55:48,0.26
2582,41,1,19,2021-07-30 19:56:43,0.47
2583,28,2,20,2021-07-30 20:02:03,0.2
2584,45,2,20,2021-07-30 20:02:41,0.27
2585,34,1,19,2021-07-30 20:05:58,0.29
2586,30,2,20,2021-07-30 20:09:38,0.36
2587,31,2,20,2021-07-30 20:12:56,0.35
2588,27,1,19,2021-07-30 20:15:37,0.27
2589,32,2,20,2021-07-30 20:17:26,0.25
2590,29,2,20,2021-07-30 20:29:11,0.29
2591,33,1,19,2021-07-30 20:30:30,0.35
2592,28,1,19,2021-07-30 20:31:44,0.36
2593,45,2,20,2021-07-30 20:33:55,0.51
2594,44,1,19,2021-07-30 20:41:24,0.33
2595,49,1,19,2021-07-30 20:41:52,0.42
2596,48,1,19,2021-07-30 20:42:28,0.43
2597,27,1,19,2021-07-30 20:42:55,0.21
2598,31,2,20,2021-07-30 20:43:41,0.41
2599,39,2,20,2021-07-30 20:44:46,0.43
2600,28,1,19,2021-07-30 20:45:16,0.23
2601,29,1,19,2021-07-30 20:58:34,0.31
2602,32,1,19,2021-07-30 21:12:41,0.27
2603,37,2,20,2021-07-30 21:14:00,0.31
2604,34,1,19,2021-07-30 21:14:27,0.31
2605,30,2,20,2021-07-30 21:15:09,0.31
2606,39,1,19,2021-07-30 21:16:09,0.39
2607,45,2,20,2021-07-30 21:16:52,0.48
2608,27,1,19,2021-07-30 21:17:37,0.22
2609,35,2,20,2021-07-30 21:18:43,0.31
2610,28,1,19,2021-07-30 21:21:46,0.3
2611,31,2,20,2021-07-30 21:23:00,0.34
2612,46,2,20,2021-07-30 21:27:01,0.32
2613,49,2,20,2021-07-30 21:31:54,0.63
2614,35,1,19,2021-07-30 21:35:44,0.36
2615,36,2,20,2021-07-30 21:38:01,0.2
2616,41,1,19,2021-07-30 22:08:49,0.35
2617,33,1,19,2021-07-30 22:18:33,0.33
2618,27,2,20,2021-07-30 22:21:38,0.24
2619,36,1,19,2021-07-30 22:22:16,0.39
2620,30,1,19,2021-07-30 22:22:37,0.27
2621,39,1,19,2021-07-30 22:24:22,0.39
2622,46,2,20,2021-07-30 22:25:06,0.31
2623,29,2,20,2021-07-30 22:29:28,0.47
2624,28,2,20,2021-07-30 22:37:35,0.49
2625,46,2,20,2021-07-30 22:38:51,0.29
2626,30,2,20,2021-07-30 22:41:49,0.41
2627,39,2,20,2021-07-30 22:44:53,0.33
2628,29,2,20,2021-07-30 22:45:53,0.33
2629,37,1,19,2021-07-30 22:47:47,0.35
2630,1,2,20,2021-07-30 22:48:42,0.02
2631,34,1,19,2021-07-30 22:48:46,0.28
2632,32,1,19,2021-07-30 22:51:20,0.47
2633,32,2,20,2021-07-30 22:51:39,0.05
2634,1,2,21,2021-07-30 22:53:21,0.58
2635,1,2,21,2021-07-30 22:54:10,0.5
2636,27,2,21,2021-07-30 22:54:56,0.3
2637,34,1,19,2021-07-30 22:59:44,0.34
2638,46,2,21,2021-07-30 23:02:14,0.34
2639,32,2,21,2021-07-30 23:02:46,0.34
2640,33,2,21,2021-07-30 23:06:07,0.44
2641,29,2,21,2021-07-30 23:08:47,0.36
2642,37,2,21,2021-07-30 23:11:11,0.36
2643,48,2,21,2021-07-30 23:15:33,0.43
2644,36,1,19,2021-07-30 23:18:40,0.31
2645,27,2,21,2021-07-30 23:28:44,0.27
2646,33,2,21,2021-07-30 23:29:31,0.42
2647,35,2,21,2021-07-30 23:30:36,0.43
2648,37,1,19,2021-07-30 23:31:38,0.4
2649,39,1,19,2021-07-30 23:34:54,0.31
2650,47,1,19,2021-07-30 22:44:54,0.4
2651,28,2,21,2021-07-30 23:41:42,0.52
2652,44,2,21,2021-07-30 23:42:30,0.47
2653,49,2,21,2021-07-30 23:45:16,0.56
2654,36,1,19,2021-07-30 23:45:49,0.27
2655,1,2,21,2021-07-30 23:55:10,0.39
2656,29,2,21,2021-07-30 23:56:23,0.51
2657,27,1,19,2021-07-30 23:59:19,0.29
2658,32,2,21,2021-07-31 00:04:21,0.34
2659,41,1,19,2021-07-31 00:05:08,0.11
2660,36,2,21,2021-07-31 00:14:52,0.44
2661,33,2,21,2021-07-31 00:25:42,0.35
2662,27,2,21,2021-07-31 00:34:18,0.38
2663,1,1,22,2021-07-31 00:40:16,0.95
2664,28,2,21,2021-07-31 00:41:03,0.37
2665,1,1,22,2021-07-31 00:42:28,0.04
2666,40,1,22,2021-07-31 00:54:01,0.38
2667,39,1,22,2021-07-31 00:56:11,0.32
2668,48,1,22,2021-07-31 00:58:11,0.49
2669,40,1,22,2021-07-31 01:08:41,0.37
2670,27,1,22,2021-07-31 01:12:14,0.29
2671,46,1,22,2021-07-31 01:19:49,0.17
2672,29,2,21,2021-07-31 01:22:29,0.49
2673,32,2,21,2021-07-31 01:23:14,0.33
2674,47,1,22,2021-07-31 01:24:50,0.5
2675,27,1,22,2021-07-31 01:26:56,0.33
2676,48,1,22,2021-07-31 01:27:47,0.23
2677,36,1,22,2021-07-31 01:28:56,0.31
2678,46,2,21,2021-07-31 01:46:03,0.15
2679,28,1,22,2021-07-31 01:52:24,0.41
2680,30,2,21,2021-07-31 02:09:03,0.38
2681,47,1,22,2021-07-31 02:09:35,0.36
2682,46,1,22,2021-07-31 02:24:20,0.32
2683,40,2,21,2021-07-31 02:29:52,0.47
2684,49,2,21,2021-07-31 02:31:38,0.63
2685,28,1,22,2021-07-31 02:57:18,0.39
2686,46,2,21,2021-07-31 03:00:13,0.41
2687,40,2,21,2021-07-31 03:12:23,0.4
2688,1,1,22,2021-07-31 04:26:17,0.17
2689,27,2,21,2021-07-31 12:01:06,0.31
2690,48,2,21,2021-07-31 12:01:36,0.6
2691,41,2,21,2021-07-31 12:03:03,0.62
2692,39,1,22,2021-07-31 12:14:18,0.14
2693,33,2,21,2021-07-31 12:15:26,0.46
2694,45,1,22,2021-07-31 12:16:33,0.24
2695,40,1,22,2021-07-31 12:17:40,0.51
2696,27,2,21,2021-07-31 12:20:37,0.3
2697,28,2,21,2021-07-31 12:21:14,0.52
2698,46,2,21,2021-07-31 12:21:56,0.38
2699,35,2,21,2021-07-31 12:37:31,0.5
2700,41,2,21,2021-07-31 12:39:54,0.6
2701,41,2,21,2021-07-31 12:40:46,0.13
2702,49,1,22,2021-07-31 12:44:07,0.09
2703,46,2,21,2021-07-31 12:44:32,0.38
2704,48,2,21,2021-07-31 12:49:19,0.52
2705,37,2,21,2021-07-31 12:50:06,0.41
2706,47,2,21,2021-07-31 12:50:35,0.46
2707,30,2,21,2021-07-31 12:54:36,0.31
2708,28,2,21,2021-07-31 13:01:14,0.39
2709,31,2,21,2021-07-31 13:18:20,0.27
2710,47,2,21,2021-07-31 13:25:47,0.42
2711,46,2,21,2021-07-31 13:34:57,0.37
2712,27,2,21,2021-07-31 13:37:08,0.34
2713,33,2,21,2021-07-31 13:40:54,0.45
2714,30,2,21,2021-07-31 13:42:13,0.29
2715,28,2,21,2021-07-31 13:54:16,0.46
2716,39,2,21,2021-07-31 13:54:47,0.49
2717,40,2,21,2021-07-31 13:59:11,0.44
2718,27,2,21,2021-07-31 14:02:13,0.29
2719,33,2,21,2021-07-31 14:19:28,0.36
2720,36,2,21,2021-07-31 14:19:57,0.44
2721,39,2,21,2021-07-31 14:32:38,0.4
2722,28,2,21,2021-07-31 14:38:37,0.47
2723,48,2,21,2021-07-31 14:39:07,0.49
2724,40,2,21,2021-07-31 14:43:57,0.29
2725,36,2,21,2021-07-31 14:44:41,0.36
2726,27,2,21,2021-07-31 14:48:37,0.29
2727,33,2,21,2021-07-31 14:49:06,0.39
2728,39,2,21,2021-07-31 14:57:42,0.4
2729,36,2,21,2021-07-31 15:19:48,0.32
2730,28,2,21,2021-07-31 15:25:06,0.44
2731,46,2,21,2021-07-31 15:36:58,0.33
2732,30,2,21,2021-07-31 15:37:22,0.35
2733,45,1,22,2021-07-31 15:37:55,0.27
2734,31,2,21,2021-07-31 15:38:39,0.4
2735,27,2,21,2021-07-31 15:39:14,0.32
2736,33,2,21,2021-07-31 15:45:04,0.41
2737,36,2,21,2021-07-31 15:45:36,0.43
2738,39,2,21,2021-07-31 15:46:05,0.36
2739,37,2,21,2021-07-31 15:46:33,0.27
2740,29,2,21,2021-07-31 15:50:16,0.43
2741,44,2,21,2021-07-31 15:50:48,0.34
2742,48,2,21,2021-07-31 15:51:24,0.5
2743,28,2,21,2021-07-31 15:52:06,0.43
2744,40,2,21,2021-07-31 15:59:43,0.39
2745,30,2,21,2021-07-31 16:03:26,0.31
2746,43,2,21,2021-07-31 16:12:53,0.4
2747,46,2,21,2021-07-31 16:17:48,0.08
2748,36,2,21,2021-07-31 16:26:00,0.33
2749,1,2,21,2021-07-31 16:28:34,0.7
2750,39,1,22,2021-07-31 16:29:03,0.25
2751,1,2,21,2021-07-31 16:29:22,0.08
2752,45,1,22,2021-07-31 16:32:47,0.31
2753,27,1,22,2021-07-31 16:33:13,0.24
2754,33,1,22,2021-07-31 16:35:06,0.04
2755,28,1,22,2021-07-31 16:35:52,0.48
2756,1,2,23,2021-07-31 16:39:26,0.15
2757,41,1,22,2021-07-31 16:41:30,0.42
2758,33,2,23,2021-07-31 16:42:26,0.11
2759,33,2,23,2021-07-31 16:43:01,0.08
2760,30,2,23,2021-07-31 16:46:25,0.08
2761,36,1,22,2021-07-31 16:47:37,0.26
2762,49,1,22,2021-07-31 16:48:12,0.3
2763,48,2,23,2021-07-31 16:48:51,0.19
2764,40,2,23,2021-07-31 16:49:49,0.2
2765,37,2,23,2021-07-31 16:50:12,0.07
2766,37,1,22,2021-07-31 16:51:20,0.16
2767,31,2,23,2021-07-31 16:54:17,0.1
2768,29,2,23,2021-07-31 16:54:54,0.11
2769,1,2,23,2021-07-31 16:55:09,0.02
2770,29,1,22,2021-07-31 16:55:48,0.33
2771,1,2,23,2021-07-31 16:59:09,0.07
2772,1,2,23,2021-07-31 16:59:19,0.01
2773,1,2,23,2021-07-31 17:00:41,0.15
2774,41,2,23,2021-07-31 17:01:45,0.39
2775,28,1,22,2021-07-31 17:03:40,0.34
2776,30,1,22,2021-07-31 17:05:02,0.24
2777,46,2,23,2021-07-31 17:05:49,0.24
2778,39,2,23,2021-07-31 17:06:32,0.26
2779,36,2,23,2021-07-31 17:07:21,0.26
2780,33,1,22,2021-07-31 17:14:38,0.29
2781,47,2,23,2021-07-31 17:15:08,0.12
2782,35,2,23,2021-07-31 17:17:26,0.18
2783,49,2,23,2021-07-31 17:17:59,0.24
2784,36,2,23,2021-07-31 17:26:44,0.28
2785,37,2,23,2021-07-31 17:28:00,0.39
2786,29,2,23,2021-07-31 17:28:28,0.29
2787,27,1,22,2021-07-31 17:35:33,0.21
2788,46,2,23,2021-07-31 17:35:57,0.17
2789,39,2,23,2021-07-31 17:36:22,0.27
2790,40,2,23,2021-07-31 17:36:54,0.33
2791,45,2,23,2021-07-31 17:42:17,0.26
2792,30,2,23,2021-07-31 17:46:55,0.22
2793,28,1,22,2021-07-31 17:48:46,0.33
2794,48,2,23,2021-07-31 17:54:51,0.26
2795,36,2,23,2021-07-31 17:57:13,0.2
2796,43,2,23,2021-07-31 18:01:50,0.47
2797,27,2,23,2021-07-31 18:03:03,0.18
2798,33,2,23,2021-07-31 18:03:53,0.32
2799,29,1,22,2021-07-31 18:06:50,0.41
2800,31,1,22,2021-07-31 18:11:41,0.21
2801,49,1,22,2021-07-31 18:13:38,0.22
2802,41,1,22,2021-07-31 18:14:27,0.38
2803,37,2,23,2021-07-31 18:15:21,0.27
2804,36,1,22,2021-07-31 18:17:18,0.3
2805,28,1,22,2021-07-31 18:18:35,0.43
2806,39,1,22,2021-07-31 18:20:14,0.35
2807,46,2,23,2021-07-31 18:22:09,0.24
2808,30,1,22,2021-07-31 18:26:33,0.31
2809,40,1,22,2021-07-31 18:34:55,0.21
2810,45,1,22,2021-07-31 18:40:06,0.31
2811,36,1,22,2021-07-31 18:44:40,0.27
2812,37,2,23,2021-07-31 18:55:01,0.27
2813,29,1,22,2021-07-31 18:56:35,0.35
2814,39,2,23,2021-07-31 18:57:21,0.37
2815,44,2,23,2021-07-31 18:58:16,0.24
2816,28,2,23,2021-07-31 18:58:42,0.27
2817,28,2,23,2021-07-31 18:59:39,0.07
2818,30,1,22,2021-07-31 19:01:46,0.29
2819,36,1,22,2021-07-31 19:07:45,0.26
2820,27,1,22,2021-07-31 19:10:53,0.25
2821,31,1,22,2021-07-31 19:17:47,0.23
2822,33,2,23,2021-07-31 19:18:18,0.27
2823,39,1,22,2021-07-31 19:20:34,0.32
2824,35,2,23,2021-07-31 19:26:18,0.29
2825,46,2,23,2021-07-31 19:26:44,0.24
2826,41,2,23,2021-07-31 19:27:12,0.32
2827,40,1,22,2021-07-31 19:33:35,0.2
2828,28,1,22,2021-07-31 19:47:42,0.4
2829,36,1,22,2021-07-31 19:51:49,0.34
2830,30,2,23,2021-07-31 19:52:53,0.37
2831,27,1,22,2021-07-31 19:53:42,0.26
2832,39,1,22,2021-07-31 19:54:07,0.34
2833,44,1,22,2021-07-31 19:57:27,0.32
2834,37,1,22,2021-07-31 20:04:16,0.38
2835,43,1,22,2021-07-31 20:05:29,0.46
2836,35,1,22,2021-07-31 20:09:16,0.36
2837,28,1,22,2021-07-31 20:12:04,0.32
2838,40,1,22,2021-07-31 20:14:04,0.34
2839,39,1,22,2021-07-31 20:14:33,0.35
2840,33,1,22,2021-07-31 20:17:13,0.4
2841,46,1,22,2021-07-31 20:21:50,0.24
2842,27,1,22,2021-07-31 20:23:54,0.25
2843,44,2,23,2021-07-31 20:34:53,0.3
2844,41,1,22,2021-07-31 20:35:23,0.42
2845,45,1,22,2021-07-31 20:36:02,0.43
2846,39,1,22,2021-07-31 20:40:54,0.3
2847,49,2,23,2021-07-31 20:41:22,0.35
2848,37,2,23,2021-07-31 20:42:24,0.33
2849,29,2,23,2021-07-31 20:43:13,0.48
2850,27,2,23,2021-07-31 20:44:02,0.26
2851,36,1,22,2021-07-31 20:46:56,0.29
2852,30,1,22,2021-07-31 20:48:00,0.32
2853,35,1,22,2021-07-31 20:48:49,0.3
2854,46,2,23,2021-07-31 20:49:20,0.3
2855,40,1,22,2021-07-31 20:52:56,0.36
2856,31,1,22,2021-07-31 21:00:37,0.32
2857,27,1,22,2021-07-31 21:01:04,0.25
2858,33,1,22,2021-07-31 21:01:38,0.39
2859,38,2,23,2021-07-31 21:05:21,0.25
2860,1,2,23,2021-07-31 21:05:47,0.03
2861,39,1,22,2021-07-31 21:06:40,0.29
2862,49,1,22,2021-07-31 21:07:45,0.34
2863,46,2,23,2021-07-31 21:11:40,0.27
2864,40,1,22,2021-07-31 21:15:10,0.3
2865,38,2,23,2021-07-31 21:17:12,0.38
2866,27,1,22,2021-07-31 21:18:15,0.26
2867,37,1,22,2021-07-31 21:21:02,0.39
2868,29,1,22,2021-07-31 21:21:37,0.45
2869,28,1,22,2021-07-31 21:22:33,0.47
2870,43,1,22,2021-07-31 21:24:20,0.51
2871,1,1,22,2021-07-31 21:31:57,0.03
2872,1,1,22,2021-07-31 21:33:52,1.02
2873,41,2,23,2021-07-31 21:34:18,0.34
2874,27,2,23,2021-07-31 21:34:46,0.27
2875,46,2,23,2021-07-31 21:35:29,0.37
2876,1,1,24,2021-07-31 21:35:45,0.03
2877,30,1,24,2021-07-31 21:36:16,0.27
2878,33,2,23,2021-07-31 21:37:02,0.45
2879,31,1,24,2021-07-31 21:37:49,0.41
2880,46,2,23,2021-07-31 21:38:34,0.16
2881,39,1,24,2021-07-31 21:41:12,0.42
2882,44,1,24,2021-07-31 21:42:18,0.32
2883,45,1,24,2021-07-31 21:46:43,0.43
2884,38,2,23,2021-07-31 21:48:51,0.4
2885,49,1,24,2021-07-31 21:51:45,0.39
2886,38,2,23,2021-07-31 22:01:46,0.45
2887,36,1,24,2021-07-31 22:03:52,0.43
2888,40,2,23,2021-07-31 22:04:22,0.44
2889,30,1,24,2021-07-31 22:07:16,0.2
2890,29,1,24,2021-07-31 22:10:57,0.41
2891,27,1,24,2021-07-31 22:11:34,0.34
2892,28,1,24,2021-07-31 22:12:21,0.5
2893,41,1,24,2021-07-31 22:14:11,0.49
2894,36,1,24,2021-07-31 22:14:46,0.36
2895,39,1,24,2021-07-31 22:20:12,0.4
2896,40,2,23,2021-07-31 22:26:48,0.21
2897,37,1,24,2021-07-31 22:29:18,0.34
2898,46,1,24,2021-07-31 22:31:59,0.35
2899,33,1,24,2021-07-31 22:35:13,0.39
2900,36,1,24,2021-07-31 22:48:39,0.43
2901,28,1,24,2021-07-31 22:52:27,0.46
2902,48,1,24,2021-07-31 22:59:11,0.43
2903,29,1,24,2021-07-31 22:59:46,0.43
2904,39,1,24,2021-07-31 23:03:30,0.43
2905,38,2,23,2021-07-31 23:04:42,0.36
2906,46,2,23,2021-07-31 23:06:26,0.29
2907,49,2,23,2021-07-31 23:07:31,0.42
2908,45,1,24,2021-07-31 23:08:06,0.42
2909,27,1,24,2021-07-31 23:08:38,0.39
2910,46,2,23,2021-07-31 23:13:26,0.16
2911,36,2,24,2021-07-31 23:14:26,0.45
2912,28,1,24,2021-07-31 23:35:29,0.44
2913,45,1,24,2021-07-31 23:39:15,0.39
2914,27,1,24,2021-07-31 23:40:07,0.3
2915,39,1,24,2021-07-31 23:49:51,0.32
2916,27,1,24,2021-07-31 23:50:17,0.2
2917,38,2,23,2021-07-31 23:50:38,0.28
2918,45,1,24,2021-07-31 23:51:02,0.19
2919,33,1,24,2021-07-31 23:55:53,0.16
2920,37,1,24,2021-07-31 23:59:54,0.39
2921,28,1,24,2021-08-01 00:03:03,0.36
2922,36,1,24,2021-08-01 00:04:06,0.37
2923,29,1,24,2021-08-01 00:25:23,0.31
2924,28,1,24,2021-08-01 00:29:09,0.32
2925,36,1,24,2021-08-01 00:33:53,0.41
2926,27,1,24,2021-08-01 00:43:08,0.37
2927,28,1,24,2021-08-01 01:16:05,0.45
2928,45,1,24,2021-08-01 01:20:04,0.47
2929,36,2,23,2021-08-01 01:20:40,0.47
2930,38,2,23,2021-08-01 01:21:21,0.39
2931,27,1,24,2021-08-01 01:37:11,0.32
2932,37,1,24,2021-08-01 01:45:05,0.42
2933,28,1,24,2021-08-01 01:47:19,0.44
2934,45,1,24,2021-08-01 01:53:05,0.25
2935,39,1,24,2021-08-01 02:19:54,0.38
2936,27,1,24,2021-08-01 02:26:21,0.32
2937,36,1,24,2021-08-01 02:41:25,0.37
2938,36,1,24,2021-08-01 03:16:48,0.36
2939,39,1,24,2021-08-01 03:17:18,0.45
2940,40,2,23,2021-08-01 04:13:23,0.52
